…
Let’s start with a for loop!

``` r
output = vector("list", length = 100)

for (i in 1:100) {
  
  output[[i]] = sim_mean_sd(n_obs = 30)
  
}

bind_rows(output)
```

    ## # A tibble: 100 × 2
    ##    mu_hat sigma_hat
    ##     <dbl>     <dbl>
    ##  1   8.12      4.25
    ##  2   7.29      3.76
    ##  3   6.69      3.39
    ##  4   5.64      4.06
    ##  5   8.09      4.24
    ##  6   7.64      4.72
    ##  7   7.55      4.47
    ##  8   7.96      3.71
    ##  9   7.12      4.23
    ## 10   7.59      4.04
    ## # … with 90 more rows
…
